Area code,Borough,Area name,All people,Christian,Buddhist,Hindu,Jewish,Muslim,Sikh,Other religions,No religion,Religion not stated,% Christian,% Buddhist,% Hindu,% Jewish,% Muslim,% Sikh,% Other religions,% No religion,% Religion not stated
00AA,City of London,City of London,7197,3950,45,111,228,405,22,52,1767,617,55,1,2,3,6,0,1,25,9
00ABFX,Barking and Dagenham,Abbey,10206,5092,67,397,38,2150,507,35,1116,804,50,1,4,0,21,5,0,11,8
00ABFY,Barking and Dagenham,Alibon,9300,6757,6,15,14,115,14,15,1536,828,73,0,0,0,1,0,0,17,9
00ABFZ,Barking and Dagenham,Becontree,11450,7597,50,175,70,543,120,26,1807,1062,66,0,2,1,5,1,0,16,9
00ABGA,Barking and Dagenham,Chadwell Heath,9299,6666,30,137,60,277,100,13,1332,684,72,0,1,1,3,1,0,14,7
00ABGB,Barking and Dagenham,Eastbrook,10096,7615,22,55,22,146,58,7,1575,596,75,0,1,0,1,1,0,16,6
00ABGC,Barking and Dagenham,Eastbury,10089,7079,17,113,14,479,61,14,1478,834,70,0,1,0,5,1,0,15,8
00ABGD,Barking and Dagenham,Gascoigne,9371,5248,25,225,18,1101,141,12,1399,1202,56,0,2,0,12,2,0,15,13
00ABGE,Barking and Dagenham,Goresbrook,10333,7289,15,25,22,205,23,20,1648,1086,71,0,0,0,2,0,0,16,11
00ABGF,Barking and Dagenham,Heath,9649,6873,15,21,23,188,21,12,1712,784,71,0,0,0,2,0,0,18,8
00ABGG,Barking and Dagenham,Longbridge,8890,6538,25,180,56,413,244,6,917,511,74,0,2,1,5,3,0,10,6
00ABGH,Barking and Dagenham,Mayesbrook,9316,6727,13,19,16,143,8,19,1501,870,72,0,0,0,2,0,0,16,9
00ABGJ,Barking and Dagenham,Parsloes,9039,6581,16,36,34,136,16,19,1462,739,73,0,0,0,2,0,0,16,8
00ABGK,Barking and Dagenham,River,10260,7380,15,105,26,268,131,16,1489,830,72,0,1,0,3,1,0,15,8
00ABGL,Barking and Dagenham,Thames,8547,5604,23,60,19,373,94,21,1514,839,66,0,1,0,4,1,0,18,10
00ABGM,Barking and Dagenham,Valence,8775,6309,7,53,26,166,41,11,1557,605,72,0,1,0,2,0,0,18,7
00ABGN,Barking and Dagenham,Village,9720,6869,9,49,34,188,26,34,1658,853,71,0,1,0,2,0,0,17,9
00ABGP,Barking and Dagenham,Whalebone,9604,6887,11,202,55,257,149,28,1374,641,72,0,2,1,3,2,0,14,7
00ACFX,Barnet,Brunswick Park,14668,8720,103,876,968,971,47,143,1611,1229,59,1,6,7,7,0,1,11,8
00ACFY,Barnet,Burnt Oak,15243,9006,123,1086,245,1431,19,82,1838,1413,59,1,7,2,9,0,1,12,9
00ACFZ,Barnet,Childs Hill,17261,7066,235,704,3108,1289,35,129,2623,2072,41,1,4,18,7,0,1,15,12
00ACGA,Barnet,Colindale,13860,7418,223,1545,284,1536,53,68,1569,1164,54,2,11,2,11,0,0,11,8
00ACGB,Barnet,Coppetts,14504,7914,144,965,726,927,88,129,2339,1272,55,1,7,5,6,1,1,16,9
00ACGC,Barnet,East Barnet,15332,9623,87,566,799,537,17,109,2435,1159,63,1,4,5,4,0,1,16,8
00ACGD,Barnet,East Finchley,14534,7402,127,797,1204,795,78,118,2757,1256,51,1,5,8,5,1,1,19,9
00ACGE,Barnet,Edgware,14816,4117,102,1320,5436,789,35,301,984,1732,28,1,9,37,5,0,2,7,12
00ACGF,Barnet,Finchley Church End,13810,4611,183,990,3949,786,79,117,1706,1389,33,1,7,29,6,1,1,12,10
00ACGG,Barnet,Garden Suburb,14727,4590,164,356,5460,558,33,81,1791,1694,31,1,2,37,4,0,1,12,12
00ACGH,Barnet,Golders Green,16249,4813,207,883,4790,1251,25,161,1548,2571,30,1,5,29,8,0,1,10,16
00ACGJ,Barnet,Hale,15663,7318,129,1201,2800,1000,52,226,1572,1365,47,1,8,18,6,0,1,10,9
00ACGK,Barnet,Hendon,15377,4772,200,1071,4680,893,63,112,1384,2202,31,1,7,30,6,0,1,9,14
00ACGL,Barnet,High Barnet,13847,8486,77,329,934,360,23,106,2403,1129,61,1,2,7,3,0,1,17,8
00ACGM,Barnet,Mill Hill,15379,7639,136,786,2592,954,70,106,1715,1381,50,1,5,17,6,0,1,11,9
00ACGN,Barnet,Oakleigh,14740,8664,73,701,1406,577,33,190,1702,1394,59,0,5,10,4,0,1,12,9
00ACGP,Barnet,Totteridge,14449,6815,362,806,2411,653,91,257,1800,1254,47,3,6,17,5,1,2,12,9
00ACGQ,Barnet,Underhill,15721,10204,85,504,451,646,28,96,2276,1431,65,1,3,3,4,0,1,14,9
00ACGR,Barnet,West Finchley,14264,6169,290,1688,1280,775,96,321,2543,1102,43,2,12,9,5,1,2,18,8
00ACGS,Barnet,West Hendon,14587,5648,238,2068,2118,1708,42,143,1476,1146,39,2,14,15,12,0,1,10,8
00ACGT,Barnet,Woodhouse,15533,7849,134,1769,1045,937,106,220,2248,1225,51,1,11,7,6,1,1,14,8
00ADGA,Bexley,Barnehurst,10277,7817,35,67,8,64,102,16,1509,659,76,0,1,0,1,1,0,15,6
00ADGB,Bexley,Belvedere,10839,6999,34,142,17,120,506,36,1860,1125,65,0,1,0,1,5,0,17,10
00ADGC,Bexley,Blackfen and Lamorbey,10419,8078,19,79,12,139,40,19,1340,693,78,0,1,0,1,0,0,13,7
00ADGD,Bexley,Blendon and Penhill,10418,8142,22,103,8,125,49,14,1292,663,78,0,1,0,1,0,0,12,6
00ADGE,Bexley,Brampton,10387,8022,30,69,5,89,129,30,1308,705,77,0,1,0,1,1,0,13,7
00ADGF,Bexley,Christchurch,10390,7616,23,87,17,125,103,21,1588,810,73,0,1,0,1,1,0,15,8
00ADGG,Bexley,Colyers,10595,7522,14,89,8,117,108,29,1786,922,71,0,1,0,1,1,0,17,9
00ADGH,Bexley,Crayford,10290,7710,26,44,12,62,39,24,1600,773,75,0,0,0,1,0,0,16,8
00ADGJ,Bexley,Cray Meadows,10295,7738,35,79,14,183,18,31,1505,692,75,0,1,0,2,0,0,15,7
00ADGK,Bexley,Danson Park,10315,7627,45,85,20,156,160,16,1453,753,74,0,1,0,2,2,0,14,7
00ADGL,Bexley,East Wickham,10383,7691,50,71,13,121,144,19,1390,884,74,0,1,0,1,1,0,13,9
00ADGM,Bexley,Erith,9811,6287,28,107,13,170,450,46,1682,1028,64,0,1,0,2,5,0,17,10
00ADGN,Bexley,Falconwood and Welling,10535,7798,32,113,17,198,112,15,1456,794,74,0,1,0,2,1,0,14,8
00ADGP,Bexley,Lesnes Abbey,10947,7669,185,123,6,308,263,22,1604,767,70,2,1,0,3,2,0,15,7
00ADGQ,Bexley,Longlands,9611,7326,30,99,40,92,24,28,1308,664,76,0,1,0,1,0,0,14,7
00ADGR,Bexley,North End,10465,7089,14,75,13,157,69,30,2026,992,68,0,1,0,2,1,0,19,9
00ADGS,Bexley,Northumberland Heath,10482,7575,15,89,12,121,292,17,1432,929,72,0,1,0,1,3,0,14,9
00ADGT,Bexley,St Mary`s,10043,7673,32,132,18,84,48,8,1381,667,76,0,1,0,1,0,0,14,7
00ADGU,Bexley,St Michael`s,10672,8034,18,108,7,162,194,17,1349,783,75,0,1,0,2,2,0,13,7
00ADGW,Bexley,Sidcup,10432,7912,42,130,15,203,27,24,1327,752,76,0,1,0,2,0,0,13,7
00ADGX,Bexley,Thamesmead East,10701,6909,142,61,13,273,76,23,1951,1253,65,1,1,0,3,1,0,18,12
00AEGJ,Brent,Alperton,12323,4315,173,4585,84,1550,122,84,604,806,35,1,37,1,13,1,1,5,7
00AEGK,Brent,Barnhill,13188,5675,259,2258,802,1916,106,164,1039,969,43,2,17,6,15,1,1,8,7
00AEGL,Brent,Brondesbury Park,11643,5694,78,699,727,1352,48,62,1882,1101,49,1,6,6,12,0,1,16,9
00AEGM,Brent,Dollis Hill,12102,6387,105,1764,139,2054,22,85,782,764,53,1,15,1,17,0,1,6,6
00AEGN,Brent,Dudden Hill,13350,6867,148,1323,201,1861,53,35,1641,1221,51,1,10,2,14,0,0,12,9
00AEGP,Brent,Fryent,11888,5531,118,2422,420,1657,56,134,765,785,47,1,20,4,14,0,1,6,7
00AEGQ,Brent,Harlesden,12227,7700,74,601,37,1496,9,52,1241,1017,63,1,5,0,12,0,0,10,8
00AEGR,Brent,Kensal Green,10668,6238,60,885,59,761,12,71,1651,931,58,1,8,1,7,0,1,15,9
00AEGS,Brent,Kenton,11872,3744,147,3514,1306,947,184,630,687,713,32,1,30,11,8,2,5,6,6
00AEGT,Brent,Kilburn,14172,8202,127,427,166,1581,23,75,2379,1192,58,1,3,1,11,0,1,17,8
00AEGU,Brent,Mapesbury,13242,6943,107,567,485,1534,31,68,2486,1021,52,1,4,4,12,0,1,19,8
00AEGW,Brent,Northwick Park,12175,5343,112,2834,203,1483,384,287,805,724,44,1,23,2,12,3,2,7,6
00AEGX,Brent,Preston,12832,5108,142,2953,762,1594,118,273,1035,847,40,1,23,6,12,1,2,8,7
00AEGY,Brent,Queens Park,12400,6804,94,748,243,754,25,68,2600,1064,55,1,6,2,6,0,1,21,9
00AEGZ,Brent,Queensbury,13175,4812,124,4691,151,1621,60,222,665,829,37,1,36,1,12,0,2,5,6
00AEHA,Brent,Stonebridge,15943,9508,72,1097,79,2376,13,81,1194,1523,60,0,7,0,15,0,1,7,10
00AEHB,Brent,Sudbury,12307,5163,127,3243,123,1758,171,130,776,816,42,1,26,1,14,1,1,6,7
00AEHC,Brent,Tokyngton,11836,5308,86,3102,113,1464,80,106,625,952,45,1,26,1,12,1,1,5,8
00AEHD,Brent,Welsh Harp,12405,6510,139,2084,192,1479,58,112,895,936,52,1,17,2,12,0,1,7,8
00AEHE,Brent,Wembley Central,11002,3477,79,4275,51,1647,129,178,489,677,32,1,39,0,15,1,2,4,6
00AEHF,Brent,Willesden Green,12714,6373,126,1156,121,1405,34,60,2011,1428,50,1,9,1,11,0,0,16,11
00AFGD,Bromley,Bickley,13904,10111,56,318,114,293,44,34,1921,1013,73,0,2,1,2,0,0,14,7
00AFGE,Bromley,Biggin Hill,10131,7613,9,32,9,77,34,11,1602,744,75,0,0,0,1,0,0,16,7
00AFGF,Bromley,Bromley Common and Keston,14171,10479,29,139,35,207,16,31,2213,1022,74,0,1,0,1,0,0,16,7
00AFGG,Bromley,Bromley Town,14499,10101,71,204,64,326,35,39,2605,1054,70,0,1,0,2,0,0,18,7
00AFGH,Bromley,Chelsfield and Pratts Bottom,14068,10790,45,142,41,94,31,33,1949,943,77,0,1,0,1,0,0,14,7
00AFGJ,Bromley,Chislehurst,14739,10770,43,212,99,367,49,27,2202,970,73,0,1,1,2,0,0,15,7
00AFGK,Bromley,Clock House,15757,10689,71,161,45,311,49,48,3131,1252,68,0,1,0,2,0,0,20,8
00AFGL,Bromley,Copers Cope,14229,9603,52,239,115,254,23,59,2736,1148,67,0,2,1,2,0,0,19,8
00AFGM,Bromley,Cray Valley East,14663,10362,20,52,17,142,28,87,2590,1365,71,0,0,0,1,0,1,18,9
00AFGN,Bromley,Cray Valley West,16121,11471,32,98,21,149,13,52,2786,1499,71,0,1,0,1,0,0,17,9
00AFGP,Bromley,Crystal Palace,11233,6780,67,133,43,408,10,40,2492,1260,60,1,1,0,4,0,0,22,11
00AFGQ,Bromley,Darwin,4704,3619,11,14,7,15,5,9,662,362,77,0,0,0,0,0,0,14,8
00AFGR,Bromley,Farnborough and Crofton,14180,10968,33,165,31,115,55,22,1806,985,77,0,1,0,1,0,0,13,7
00AFGS,Bromley,Hayes and Coney Hall,14923,11477,29,113,42,128,14,39,2093,988,77,0,1,0,1,0,0,14,7
00AFGT,Bromley,Kelsey and Eden Park,14751,10841,58,211,82,219,23,40,2258,1019,73,0,1,1,1,0,0,15,7
00AFGU,Bromley,Mottingham and Chislehurst North,10114,6976,39,101,18,192,29,33,1765,961,69,0,1,0,2,0,0,17,10
00AFGW,Bromley,Orpington,15078,11269,49,96,39,237,23,44,2219,1102,75,0,1,0,2,0,0,15,7
00AFGX,Bromley,Penge and Cator,16687,10384,76,240,50,714,17,68,3688,1450,62,0,1,0,4,0,0,22,9
00AFGY,Bromley,Petts Wood and Knoll,13627,10625,46,141,49,93,19,27,1756,871,78,0,1,0,1,0,0,13,6
00AFGZ,Bromley,Plaistow and Sundridge,14374,10027,58,195,70,279,40,48,2536,1121,70,0,1,0,2,0,0,18,8
00AFHA,Bromley,Shortlands,9303,6867,30,178,70,138,22,39,1375,584,74,0,2,1,1,0,0,15,6
00AFHB,Bromley,West Wickham,14276,11049,29,166,37,168,21,45,1894,867,77,0,1,0,1,0,0,13,6
00AGGD,Camden,Belsize,11653,5103,193,202,1340,826,18,71,2674,1226,44,2,2,11,7,0,1,23,11
00AGGE,Camden,Bloomsbury,9224,4386,188,298,215,1055,51,61,2165,805,48,2,3,2,11,1,1,23,9
00AGGF,Camden,Camden Town with Primrose Hill,11574,5490,115,149,446,1174,16,67,2652,1465,47,1,1,4,10,0,1,23,13
00AGGG,Camden,Cantelowes,10490,4807,167,98,227,1111,9,54,2851,1166,46,2,1,2,11,0,1,27,11
00AGGH,Camden,Fortune Green,10465,5068,97,190,822,806,20,53,2419,990,48,1,2,8,8,0,1,23,9
00AGGJ,Camden,Frognal and Fitzjohns,11632,4803,171,265,1985,761,44,77,2288,1238,41,1,2,17,7,0,1,20,11
00AGGK,Camden,Gospel Oak,10465,5509,98,91,335,987,36,96,2346,967,53,1,1,3,9,0,1,22,9
00AGGL,Camden,Hampstead Town,10617,4880,122,123,1245,362,23,70,2635,1157,46,1,1,12,3,0,1,25,11
00AGGM,Camden,Haverstock,11224,5544,110,140,333,1527,16,56,2347,1151,49,1,1,3,14,0,0,21,10
00AGGN,Camden,Highgate,10492,5380,105,77,494,467,17,68,2949,935,51,1,1,5,4,0,1,28,9
00AGGP,Camden,Holborn and Covent Garden,10645,5060,159,176,180,1757,19,38,2045,1211,48,1,2,2,17,0,0,19,11
00AGGQ,Camden,Kentish Town,11462,5405,122,109,248,1060,18,73,3321,1106,47,1,1,2,9,0,1,29,10
00AGGR,Camden,Kilburn,10494,5389,114,164,422,1366,13,61,1857,1108,51,1,2,4,13,0,1,18,11
00AGGS,Camden,King`s Cross,11413,4668,240,270,138,2570,36,91,2441,959,41,2,2,1,23,0,1,21,8
00AGGT,Camden,Regent`s Park,11964,5636,107,161,313,2537,29,42,1969,1170,47,1,1,3,21,0,0,16,10
00AGGU,Camden,St Pancras and Somers Town,12490,6229,116,135,103,2861,24,52,1828,1142,50,1,1,1,23,0,0,15,9
00AGGW,Camden,Swiss Cottage,11663,4925,235,239,1616,950,43,67,2390,1198,42,2,2,14,8,0,1,20,10
00AGGX,Camden,West Hampstead,10053,4977,133,144,691,729,11,64,2432,872,50,1,1,7,7,0,1,24,9
00AHGE,Croydon,Addiscombe,15402,9527,86,638,61,739,28,98,2803,1422,62,1,4,0,5,0,1,18,9
00AHGF,Croydon,Ashburton,13560,9687,19,325,38,404,31,47,1965,1044,71,0,2,0,3,0,0,14,8
00AHGG,Croydon,Bensham Manor,16088,8899,67,2042,22,1677,156,137,1569,1519,55,0,13,0,10,1,1,10,9
00AHGH,Croydon,Broad Green,14866,8564,54,1837,27,1333,46,54,1895,1056,58,0,12,0,9,0,0,13,7
00AHGJ,Croydon,Coulsdon East,12225,9298,24,139,29,132,14,27,1668,894,76,0,1,0,1,0,0,14,7
00AHGK,Croydon,Coulsdon West,13220,9328,72,431,39,411,92,58,1717,1072,71,1,3,0,3,1,0,13,8
00AHGL,Croydon,Croham,14443,9459,103,537,64,425,42,73,2671,1069,65,1,4,0,3,0,1,18,7
00AHGM,Croydon,Fairfield,14085,7894,150,1013,115,874,47,105,2566,1321,56,1,7,1,6,0,1,18,9
00AHGN,Croydon,Fieldway,11176,6878,31,85,8,478,10,23,2316,1347,62,0,1,0,4,0,0,21,12
00AHGP,Croydon,Heathfield,13053,9420,54,345,50,335,57,36,1925,831,72,0,3,0,3,0,0,15,6
00AHGQ,Croydon,Kenley,13525,9519,45,422,51,196,32,51,2029,1180,70,0,3,0,1,0,0,15,9
00AHGR,Croydon,New Addington,10351,6958,21,74,14,182,16,29,2179,878,67,0,1,0,2,0,0,21,8
00AHGS,Croydon,Norbury,13812,8175,65,1237,75,1514,116,176,1392,1062,59,0,9,1,11,1,1,10,8
00AHGT,Croydon,Purley,12998,8867,120,513,47,497,55,57,1758,1084,68,1,4,0,4,0,0,14,8
00AHGU,Croydon,Sanderstead,12165,9234,47,338,29,195,30,27,1514,751,76,0,3,0,2,0,0,12,6
00AHGW,Croydon,Selhurst,14591,9044,36,778,37,1127,41,77,2261,1190,62,0,5,0,8,0,1,15,8
00AHGX,Croydon,Selsdon and Ballards,11879,8863,48,376,26,284,21,38,1536,687,75,0,3,0,2,0,0,13,6
00AHGY,Croydon,Shirley,13978,9789,49,500,29,470,73,50,1937,1081,70,0,4,0,3,1,0,14,8
00AHGZ,Croydon,South Norwood,14590,9399,80,275,78,970,21,58,2407,1302,64,1,2,1,7,0,0,16,9
00AHHA,Croydon,Thornton Heath,14784,9819,38,486,18,1048,62,66,1876,1371,66,0,3,0,7,0,0,13,9
00AHHB,Croydon,Upper Norwood,14190,8743,112,886,60,1014,64,125,2126,1060,62,1,6,0,7,0,1,15,7
00AHHC,Croydon,Waddon,13393,8961,98,463,20,550,35,73,2155,1038,67,1,3,0,4,0,1,16,8
00AHHD,Croydon,West Thornton,16498,8365,96,2677,26,2133,177,294,1501,1229,51,1,16,0,13,1,2,9,7
00AHHE,Croydon,Woodside,15715,10434,64,364,36,654,44,52,2849,1218,66,0,2,0,4,0,0,18,8
00AJGC,Ealing,Acton Central,13442,7261,236,421,77,1444,225,57,2510,1211,54,2,3,1,11,2,0,19,9
00AJGD,Ealing,Cleveland,14179,8441,129,432,131,1249,238,54,2335,1170,60,1,3,1,9,2,0,16,8
00AJGE,Ealing,Dormers Wells,13073,3995,56,1924,10,2270,3210,62,608,938,31,0,15,0,17,25,0,5,7
00AJGF,Ealing,Ealing Broadway,12634,7509,177,349,151,648,184,61,2580,975,59,1,3,1,5,1,0,20,8
00AJGG,Ealing,Ealing Common,12804,7357,202,341,162,725,234,43,2684,1056,57,2,3,1,6,2,0,21,8
00AJGH,Ealing,East Acton,14448,7750,209,539,66,2263,260,82,2013,1266,54,1,4,0,16,2,1,14,9
00AJGJ,Ealing,Elthorne,12328,7433,69,307,43,868,338,37,2426,807,60,1,2,0,7,3,0,20,7
00AJGK,Ealing,Greenford Broadway,13297,7764,68,960,22,1343,750,50,1335,1005,58,1,7,0,10,6,0,10,8
00AJGL,Ealing,Greenford Green,12466,7389,90,1339,41,1088,385,36,1270,828,59,1,11,0,9,3,0,10,7
00AJGM,Ealing,Hanger Hill,14010,7266,506,569,229,1357,318,76,2571,1118,52,4,4,2,10,2,1,18,8
00AJGN,Ealing,Hobbayne,13068,8124,86,442,46,941,264,54,2060,1051,62,1,3,0,7,2,0,16,8
00AJGP,Ealing,Lady Margaret,12806,3444,58,2353,8,1593,4025,23,424,878,27,0,18,0,12,31,0,3,7
00AJGQ,Ealing,Northfield,12477,7620,121,369,61,441,137,62,2763,903,61,1,3,0,4,1,0,22,7
00AJGR,Ealing,North Greenford,13089,6622,108,2355,33,1579,441,118,1148,685,51,1,18,0,12,3,1,9,5
00AJGS,Ealing,Northolt Mandeville,12888,8021,105,914,31,1005,271,59,1605,877,62,1,7,0,8,2,0,12,7
00AJGT,Ealing,Northolt West End,13420,8400,46,669,17,1317,330,20,1747,874,63,0,5,0,10,2,0,13,7
00AJGU,Ealing,Norwood Green,12647,4259,32,1436,17,2029,3094,30,864,886,34,0,11,0,16,24,0,7,7
00AJGW,Ealing,Perivale,13441,6909,165,2013,26,1771,488,74,1179,816,51,1,15,0,13,4,1,9,6
00AJGX,Ealing,South Acton,13318,7560,204,352,72,1279,211,69,2250,1321,57,2,3,1,10,2,1,17,10
00AJGY,Ealing,Southall Broadway,13049,2075,74,2655,6,2461,4773,37,289,679,16,1,20,0,19,37,0,2,5
00AJGZ,Ealing,Southall Green,12895,2433,35,2062,13,2178,5097,50,407,620,19,0,16,0,17,40,0,3,5
00AJHA,Ealing,Southfield,12481,7542,122,189,117,550,69,63,2701,1128,60,1,2,1,4,1,1,22,9
00AJHB,Ealing,Walpole,12688,7542,103,394,109,634,283,55,2667,901,59,1,3,1,5,2,0,21,7
00AKGL,Enfield,Bowes,11678,6290,70,893,108,1452,78,246,1735,806,54,1,8,1,12,1,2,15,7
00AKGM,Enfield,Bush Hill Park,13346,9289,46,393,183,830,40,64,1497,1004,70,0,3,1,6,0,0,11,8
00AKGN,Enfield,Chase,12531,8818,33,127,77,517,8,48,1991,912,70,0,1,1,4,0,0,16,7
00AKGP,Enfield,Cockfosters,12536,6955,115,560,1461,823,20,112,1259,1231,55,1,4,12,7,0,1,10,10
00AKGQ,Enfield,Edmonton Green,15103,8332,51,557,50,2747,47,104,1680,1535,55,0,4,0,18,0,1,11,10
00AKGR,Enfield,Enfield Highway,14137,9463,47,283,54,1281,41,36,1756,1176,67,0,2,0,9,0,0,12,8
00AKGS,Enfield,Enfield Lock,12714,8524,36,150,38,1003,25,45,1968,925,67,0,1,0,8,0,0,15,7
00AKGT,Enfield,Grange,11605,8195,62,251,403,426,43,70,1350,805,71,1,2,3,4,0,1,12,7
00AKGU,Enfield,Haselbury,14485,8636,58,717,51,2208,78,50,1400,1287,60,0,5,0,15,1,0,10,9
00AKGW,Enfield,Highlands,12305,8472,58,313,381,562,12,44,1570,893,69,0,3,3,5,0,0,13,7
00AKGX,Enfield,Jubilee,13052,8207,17,504,53,1734,54,56,1317,1110,63,0,4,0,13,0,0,10,9
00AKGY,Enfield,Lower Edmonton,12686,7809,55,549,31,1796,52,48,1219,1127,62,0,4,0,14,0,0,10,9
00AKGZ,Enfield,Palmers Green,13197,7873,136,705,189,1565,37,127,1643,922,60,1,5,1,12,0,1,12,7
00AKHA,Enfield,Ponders End,12978,7747,65,337,49,2123,46,58,1557,996,60,1,3,0,16,0,0,12,8
00AKHB,Enfield,Southbury,12466,8099,53,212,73,918,26,46,2013,1026,65,0,2,1,7,0,0,16,8
00AKHC,Enfield,Southgate,12103,6985,120,524,846,766,38,78,1635,1111,58,1,4,7,6,0,1,14,9
00AKHD,Enfield,Southgate Green,12897,7304,105,707,669,1097,68,258,1631,1058,57,1,5,5,9,1,2,13,8
00AKHE,Enfield,Town,13928,10435,48,172,101,279,27,44,1808,1014,75,0,1,1,2,0,0,13,7
00AKHF,Enfield,Turkey Street,12744,8947,28,140,39,902,9,38,1676,965,70,0,1,0,7,0,0,13,8
00AKHG,Enfield,Upper Edmonton,14843,8519,59,772,89,2448,75,82,1385,1414,57,0,5,1,16,1,1,9,10
00AKHH,Enfield,Winchmore Hill,12225,7937,72,310,391,829,68,48,1687,883,65,1,3,3,7,1,0,14,7
00ALGP,Greenwich,Abbey Wood,13372,8716,42,194,20,458,323,49,2384,1186,65,0,1,0,3,2,0,18,9
00ALGQ,Greenwich,Blackheath Westcombe,11981,7266,82,99,74,318,109,37,2965,1031,61,1,1,1,3,1,0,25,9
00ALGR,Greenwich,Charlton,12608,7253,154,180,44,593,305,38,2851,1190,58,1,1,0,5,2,0,23,9
00ALGS,Greenwich,Coldharbour and New Eltham,12425,8881,38,146,17,368,50,31,1811,1083,71,0,1,0,3,0,0,15,9
00ALGT,Greenwich,Eltham North,12303,8618,47,124,22,168,56,26,2142,1100,70,0,1,0,1,0,0,17,9
00ALGU,Greenwich,Eltham South,11629,8138,49,172,22,267,50,41,1926,964,70,0,1,0,2,0,0,17,8
00ALGW,Greenwich,Eltham West,13438,8490,180,75,16,494,51,40,2776,1316,63,1,1,0,4,0,0,21,10
00ALGX,Greenwich,Glyndon,13879,7458,123,743,11,913,660,52,2465,1454,54,1,5,0,7,5,0,18,10
00ALGY,Greenwich,Greenwich West,11228,6522,123,163,33,444,143,51,2678,1071,58,1,1,0,4,1,0,24,10
00ALGZ,Greenwich,Kidbrooke with Hornfair,12098,7842,89,162,19,445,228,31,2211,1071,65,1,1,0,4,2,0,18,9
00ALHA,Greenwich,Middle Park and Sutcliffe,12832,8297,82,155,49,305,58,29,2685,1172,65,1,1,0,2,0,0,21,9
00ALHB,Greenwich,Peninsula,10155,5824,87,121,36,455,333,21,2419,859,57,1,1,0,4,3,0,24,8
00ALHC,Greenwich,Plumstead,14112,7767,81,710,18,993,977,38,2271,1257,55,1,5,0,7,7,0,16,9
00ALHD,Greenwich,Shooters Hill,12854,8124,86,222,21,424,410,31,2389,1147,63,1,2,0,3,3,0,19,9
00ALHE,Greenwich,Thamesmead Moorings,11755,7448,147,162,22,483,162,13,2190,1128,63,1,1,0,4,1,0,19,10
00ALHF,Greenwich,Woolwich Common,14967,7832,331,622,16,1128,669,50,2722,1597,52,2,4,0,8,4,0,18,11
00ALHG,Greenwich,Woolwich Riverside,12767,7448,256,201,24,943,120,38,2480,1257,58,2,2,0,7,1,0,19,10
00AMGA,Hackney,Brownswood,11331,5199,145,115,418,1522,108,105,2529,1190,46,1,1,4,13,1,1,22,11
00AMGB,Hackney,Cazenove,10500,3359,74,97,1390,2069,127,68,1784,1532,32,1,1,13,20,1,1,17,15
00AMGC,Hackney,Chatham,10728,5773,170,112,77,1538,82,40,1866,1070,54,2,1,1,14,1,0,17,10
00AMGD,Hackney,Clissold,10438,4594,126,79,166,1376,125,71,2919,982,44,1,1,2,13,1,1,28,9
00AMGE,Hackney,Dalston,10358,5100,185,82,186,1439,85,36,2188,1057,49,2,1,2,14,1,0,21,10
00AMGF,Hackney,De Beauvoir,9928,5547,109,44,120,1103,75,37,1838,1055,56,1,0,1,11,1,0,19,11
00AMGG,Hackney,Hackney Central,10291,5128,180,70,206,1456,114,61,2095,981,50,2,1,2,14,1,1,20,10
00AMGH,Hackney,Hackney Downs,10276,4622,122,117,217,1605,132,98,2316,1047,45,1,1,2,16,1,1,23,10
00AMGJ,Hackney,Haggerston,10366,5447,148,88,91,1597,48,44,1863,1040,53,1,1,1,15,0,0,18,10
00AMGK,Hackney,Hoxton,10698,6220,99,58,85,1308,28,51,1826,1023,58,1,1,1,12,0,0,17,10
00AMGL,Hackney,King`s Park,10964,5805,111,78,88,1557,110,58,1626,1531,53,1,1,1,14,1,1,15,14
00AMGM,Hackney,Leabridge,9857,4129,50,169,149,2074,139,40,2126,981,42,1,2,2,21,1,0,22,10
00AMGN,Hackney,Lordship,11299,3766,81,46,1949,966,97,96,2147,2151,33,1,0,17,9,1,1,19,19
00AMGP,Hackney,New River,11504,3918,78,96,2346,1525,96,80,1515,1850,34,1,1,20,13,1,1,13,16
00AMGQ,Hackney,Queensbridge,10179,5392,151,45,104,1318,35,42,2017,1075,53,1,0,1,13,0,0,20,11
00AMGR,Hackney,Springfield,10859,3512,66,61,2552,1352,134,67,1185,1930,32,1,1,24,12,1,1,11,18
00AMGS,Hackney,Stoke Newington Central,10133,4163,108,147,238,1563,96,58,2689,1071,41,1,1,2,15,1,1,27,11
00AMGT,Hackney,Victoria,12066,6318,172,83,199,1478,44,60,2339,1373,52,1,1,2,12,0,0,19,11
00AMGU,Hackney,Wick,11049,6439,146,50,151,1062,50,36,1739,1376,58,1,0,1,10,0,0,16,12
00ANGA,Hammersmith and Fulham,Addison,11185,6943,80,142,97,683,33,51,2207,949,62,1,1,1,6,0,0,20,8
00ANGB,Hammersmith and Fulham,Askew,11886,7008,102,146,76,883,26,50,2631,964,59,1,1,1,7,0,0,22,8
00ANGC,Hammersmith and Fulham,Avonmore and Brook Green,11522,6754,115,171,152,1165,21,69,2047,1028,59,1,1,1,10,0,1,18,9
00ANGD,Hammersmith and Fulham,College Park and Old Oak,7643,4625,62,129,16,899,19,20,1085,788,61,1,2,0,12,0,0,14,10
00ANGE,Hammersmith and Fulham,Fulham Broadway,10189,6654,81,121,55,689,17,28,1714,830,65,1,1,1,7,0,0,17,8
00ANGF,Hammersmith and Fulham,Fulham Reach,10197,6672,94,167,69,441,16,70,1878,790,65,1,2,1,4,0,1,18,8
00ANGG,Hammersmith and Fulham,Hammersmith Broadway,11560,7082,85,72,108,827,36,45,2190,1115,61,1,1,1,7,0,0,19,10
00ANGH,Hammersmith and Fulham,Munster,9884,6829,72,95,78,297,10,40,1663,800,69,1,1,1,3,0,0,17,8
00ANGJ,Hammersmith and Fulham,North End,10904,6756,105,99,56,786,30,78,2090,904,62,1,1,1,7,0,1,19,8
00ANGK,Hammersmith and Fulham,Palace Riverside,7333,5303,38,52,117,187,4,36,1055,541,72,1,1,2,3,0,0,14,7
00ANGL,Hammersmith and Fulham,Parsons Green and Walham,10280,7438,42,59,112,345,9,28,1444,803,72,0,1,1,3,0,0,14,8
00ANGM,Hammersmith and Fulham,Ravenscourt Park,10791,6620,70,137,116,785,15,34,2116,898,61,1,1,1,7,0,0,20,8
00ANGN,Hammersmith and Fulham,Sands End,9723,6532,76,65,81,555,15,38,1553,808,67,1,1,1,6,0,0,16,8
00ANGP,Hammersmith and Fulham,Shepherd`s Bush Green,10249,6058,94,152,67,870,27,56,2000,925,59,1,1,1,8,0,1,20,9
00ANGQ,Hammersmith and Fulham,Town,9899,6723,79,59,79,421,16,26,1670,826,68,1,1,1,4,0,0,17,8
00ANGR,Hammersmith and Fulham,Wormholt and White City,11997,7172,76,135,33,1481,24,44,1805,1227,60,1,1,0,12,0,0,15,10
00APGA,Haringey,Alexandra,10475,5326,66,168,456,453,26,50,2892,1038,51,1,2,4,4,0,0,28,10
00APGB,Haringey,Bounds Green,10905,5625,81,406,126,1172,24,85,1999,1387,52,1,4,1,11,0,1,18,13
00APGC,Haringey,Bruce Grove,11997,6184,152,245,43,1815,58,55,1821,1624,52,1,2,0,15,0,0,15,14
00APGD,Haringey,Crouch End,10762,5058,128,92,500,337,21,58,3418,1150,47,1,1,5,3,0,1,32,11
00APGE,Haringey,Fortis Green,11235,5386,142,134,976,473,35,52,3002,1035,48,1,1,9,4,0,0,27,9
00APGF,Haringey,Harringay,10525,4754,108,326,99,1347,31,73,2641,1146,45,1,3,1,13,0,1,25,11
00APGG,Haringey,Highgate,10310,5033,93,128,840,366,6,54,2630,1160,49,1,1,8,4,0,1,26,11
00APGH,Haringey,Hornsey,10075,4796,70,193,175,744,45,69,2697,1286,48,1,2,2,7,0,1,27,13
00APGJ,Haringey,Muswell Hill,9975,5015,84,94,568,290,59,88,2922,855,50,1,1,6,3,1,1,29,9
00APGK,Haringey,Noel Park,11472,5924,149,399,56,1705,44,48,1898,1249,52,1,3,0,15,0,0,17,11
00APGL,Haringey,Northumberland Park,12606,6796,121,208,26,1995,29,42,1299,2090,54,1,2,0,16,0,0,10,17
00APGM,Haringey,St Ann`s,12603,6080,144,396,73,1811,77,63,2188,1771,48,1,3,1,14,1,0,17,14
00APGN,Haringey,Seven Sisters,13179,5838,123,167,1351,1928,86,45,1884,1757,44,1,1,10,15,1,0,14,13
00APGP,Haringey,Stroud Green,10324,4735,76,111,164,622,16,63,3373,1164,46,1,1,2,6,0,1,33,11
00APGQ,Haringey,Tottenham Green,11966,6342,171,234,91,1876,21,68,1834,1329,53,1,2,1,16,0,1,15,11
00APGR,Haringey,Tottenham Hale,12728,6911,161,269,56,2131,21,52,1644,1483,54,1,2,0,17,0,0,13,12
00APGS,Haringey,West Green,11884,5946,160,366,40,1933,42,53,1846,1498,50,1,3,0,16,0,0,16,13
00APGT,Haringey,White Hart Lane,11985,6817,98,168,27,1834,43,49,1356,1593,57,1,1,0,15,0,0,11,13
00APGU,Haringey,Woodside,11501,5838,156,328,57,1539,41,68,1905,1569,51,1,3,0,13,0,1,17,14
00AQFY,Harrow,Belmont,9506,4340,69,1922,1303,464,40,268,580,520,46,1,20,14,5,0,3,6,5
00AQFZ,Harrow,Canons,10091,2705,55,1265,3622,513,31,249,719,932,27,1,13,36,5,0,2,7,9
00AQGA,Harrow,Edgware,9832,3865,109,3126,201,988,62,225,615,641,39,1,32,2,10,1,2,6,7
00AQGB,Harrow,Greenhill,9324,4413,71,1429,289,891,89,186,1301,655,47,1,15,3,10,1,2,14,7
00AQGC,Harrow,Harrow on the Hill,10632,5593,62,1591,243,796,155,147,1187,858,53,1,15,2,7,1,1,11,8
00AQGD,Harrow,Harrow Weald,10345,6039,33,1012,676,574,65,117,948,881,58,0,10,7,6,1,1,9,9
00AQGE,Harrow,Hatch End,10098,5350,41,1198,1149,465,65,243,875,712,53,0,12,11,5,1,2,9,7
00AQGF,Harrow,Headstone North,9522,5235,103,1511,203,558,139,166,976,631,55,1,16,2,6,1,2,10,7
00AQGG,Harrow,Headstone South,9366,4690,48,1705,117,719,126,174,1226,561,50,1,18,1,8,1,2,13,6
00AQGH,Harrow,Kenton East,9888,3458,53,4216,120,642,72,294,515,518,35,1,43,1,6,1,3,5,5
00AQGJ,Harrow,Kenton West,10277,3957,39,3321,317,783,140,679,542,499,39,0,32,3,8,1,7,5,5
00AQGK,Harrow,Marlborough,9207,4753,53,1737,88,861,83,109,1031,492,52,1,19,1,9,1,1,11,5
00AQGL,Harrow,Pinner,9601,5193,45,865,989,452,58,112,1030,857,54,0,9,10,5,1,1,11,9
00AQGM,Harrow,Pinner South,9555,5590,87,1003,539,328,80,100,1114,714,59,1,10,6,3,1,1,12,7
00AQGN,Harrow,Queensbury,10055,3511,101,3810,231,889,77,365,461,610,35,1,38,2,9,1,4,5,6
00AQGP,Harrow,Rayners Lane,10038,4925,92,2207,134,757,271,125,940,587,49,1,22,1,8,3,1,9,6
00AQGQ,Harrow,Roxbourne,10947,5360,76,2143,70,1091,142,105,1134,826,49,1,20,1,10,1,1,10,8
00AQGR,Harrow,Roxeth,10538,5369,109,2084,40,1020,180,119,952,665,51,1,20,0,10,2,1,9,6
00AQGS,Harrow,Stanmore Park,9339,3611,17,1011,2552,497,24,188,617,822,39,0,11,27,5,0,2,7,9
00AQGT,Harrow,Wealdstone,8963,4994,51,1422,112,886,48,102,838,510,56,1,16,1,10,1,1,9,6
00AQGU,Harrow,West Harrow,9690,4848,76,1970,117,741,126,135,1073,604,50,1,20,1,8,1,1,11,6
00ARGC,Havering,Brooklands,13024,9179,41,133,65,168,97,21,2164,1156,70,0,1,0,1,1,0,17,9
00ARGD,Havering,Cranham,12242,10005,14,46,41,44,16,30,1281,765,82,0,0,0,0,0,0,10,6
00ARGE,Havering,Elm Park,12048,9422,13,84,51,60,67,18,1577,756,78,0,1,0,0,1,0,13,6
00ARGF,Havering,Emerson Park,11396,8791,18,339,71,201,159,24,1120,673,77,0,3,1,2,1,0,10,6
00ARGG,Havering,Gooshays,13991,9647,27,54,62,88,12,19,2472,1610,69,0,0,0,1,0,0,18,12
00ARGH,Havering,Hacton,12494,9603,33,93,41,105,23,20,1450,1126,77,0,1,0,1,0,0,12,9
00ARGJ,Havering,Harold Wood,12004,9044,43,120,50,98,14,44,1714,877,75,0,1,0,1,0,0,14,7
00ARGK,Havering,Havering Park,12366,9340,10,71,72,66,22,21,1875,889,76,0,1,1,1,0,0,15,7
00ARGL,Havering,Heaton,11778,8620,17,49,34,64,23,20,1799,1152,73,0,0,0,1,0,0,15,10
00ARGM,Havering,Hylands,12380,9820,10,95,52,93,44,30,1516,720,79,0,1,0,1,0,0,12,6
00ARGN,Havering,Mawneys,12556,9482,20,66,60,89,18,24,1710,1087,76,0,1,0,1,0,0,14,9
00ARGP,Havering,Pettits,12831,10128,11,72,135,76,47,15,1333,1014,79,0,1,1,1,0,0,10,8
00ARGQ,Havering,Rainham and Wennington,12114,9156,15,66,31,79,219,15,1458,1075,76,0,1,0,1,2,0,12,9
00ARGR,Havering,Romford Town,13200,9441,47,129,97,184,72,34,2074,1122,72,0,1,1,1,1,0,16,9
00ARGS,Havering,St Andrew`s,12778,10075,22,41,65,91,16,22,1576,870,79,0,0,1,1,0,0,12,7
00ARGT,Havering,South Hornchurch,12592,9624,19,57,26,115,46,10,1765,930,76,0,0,0,1,0,0,14,7
00ARGU,Havering,Squirrel`s Heath,11780,9088,31,133,136,115,20,36,1405,816,77,0,1,1,1,0,0,12,7
00ARGW,Havering,Upminster,12674,10260,13,67,34,64,21,23,1278,914,81,0,1,0,1,0,0,10,7
00ASGG,Hillingdon,Barnhill,11728,5530,32,1279,15,773,1917,46,1243,893,47,0,11,0,7,16,0,11,8
00ASGH,Hillingdon,Botwell,12432,6971,52,810,11,982,1022,23,1690,871,56,0,7,0,8,8,0,14,7
00ASGJ,Hillingdon,Brunel,10631,6943,31,349,16,512,203,35,1739,803,65,0,3,0,5,2,0,16,8
00ASGK,Hillingdon,Cavendish,11239,8202,36,351,70,262,90,45,1500,683,73,0,3,1,2,1,0,13,6
00ASGL,Hillingdon,Charville,11429,7951,14,358,11,463,459,31,1435,707,70,0,3,0,4,4,0,13,6
00ASGM,Hillingdon,Eastcote and East Ruislip,11480,8367,22,382,228,240,80,61,1316,784,73,0,3,2,2,1,1,11,7
00ASGN,Hillingdon,Harefield,7090,5124,17,105,31,72,14,21,978,728,72,0,1,0,1,0,0,14,10
00ASGP,Hillingdon,Heathrow Villages,10217,6171,49,493,11,604,873,39,1306,671,60,0,5,0,6,9,0,13,7
00ASGQ,Hillingdon,Hillingdon East,11878,8181,33,334,11,339,283,52,1771,874,69,0,3,0,3,2,0,15,7
00ASGR,Hillingdon,Ickenham,9933,7451,47,269,50,152,162,40,1137,625,75,0,3,1,2,2,0,11,6
00ASGS,Hillingdon,Manor,10902,8015,37,240,67,195,77,24,1468,779,74,0,2,1,2,1,0,13,7
00ASGT,Hillingdon,Northwood,10559,6136,75,792,798,516,100,99,1192,851,58,1,8,8,5,1,1,11,8
00ASGU,Hillingdon,Northwood Hills,10833,6833,65,742,387,419,91,86,1385,825,63,1,7,4,4,1,1,13,8
00ASGW,Hillingdon,Pinkwell,12346,6175,46,1069,12,1024,2102,42,1244,632,50,0,9,0,8,17,0,10,5
00ASGX,Hillingdon,South Ruislip,10823,7512,47,404,39,362,120,25,1575,739,69,0,4,0,3,1,0,15,7
00ASGY,Hillingdon,Townfield,11626,6501,46,779,16,1156,951,57,1285,835,56,0,7,0,10,8,0,11,7
00ASGZ,Hillingdon,Uxbridge North,11671,8074,36,305,35,366,334,70,1647,804,69,0,3,0,3,3,1,14,7
00ASHA,Hillingdon,Uxbridge South,11438,7032,66,397,21,695,227,58,1962,980,61,1,3,0,6,2,1,17,9
00ASHB,Hillingdon,West Drayton,11589,7987,24,251,14,417,318,37,1704,837,69,0,2,0,4,3,0,15,7
00ASHC,Hillingdon,West Ruislip,10183,7321,43,242,88,172,64,26,1375,852,72,0,2,1,2,1,0,14,8
00ASHD,Hillingdon,Yeading,11923,6113,71,1008,26,1036,1298,30,1563,778,51,1,8,0,9,11,0,13,7
00ASHE,Hillingdon,Yiewsley,11056,7185,54,238,20,501,271,37,1971,779,65,0,2,0,5,2,0,18,7
00ATFY,Hounslow,Bedfont,10104,6672,26,393,16,470,431,33,1464,599,66,0,4,0,5,4,0,14,6
00ATFZ,Hounslow,Brentford,10745,6712,51,229,28,802,180,35,1866,842,62,0,2,0,7,2,0,17,8
00ATGA,Hounslow,Chiswick Homefields,10290,6603,72,132,127,392,53,44,2126,741,64,1,1,1,4,1,0,21,7
00ATGB,Hounslow,Chiswick Riverside,10935,6824,117,147,124,601,108,59,2176,779,62,1,1,1,5,1,1,20,7
00ATGC,Hounslow,Cranford,10936,3725,48,1394,8,1693,2423,61,704,880,34,0,13,0,15,22,1,6,8
00ATGD,Hounslow,Feltham North,9570,6270,47,390,5,481,266,33,1431,647,66,0,4,0,5,3,0,15,7
00ATGE,Hounslow,Feltham West,11530,7500,45,197,15,527,144,39,2152,911,65,0,2,0,5,1,0,19,8
00ATGF,Hounslow,Hanworth,10995,6837,52,297,13,632,195,47,2025,897,62,0,3,0,6,2,0,18,8
00ATGG,Hounslow,Hanworth Park,10396,6773,43,273,17,428,182,29,1653,998,65,0,3,0,4,2,0,16,10
00ATGH,Hounslow,Heston Central,10998,3671,98,1595,12,1763,2241,77,724,817,33,1,15,0,16,20,1,7,7
00ATGJ,Hounslow,Heston East,10781,3392,62,1441,14,1461,2705,102,646,958,31,1,13,0,14,25,1,6,9
00ATGK,Hounslow,Heston West,11332,3779,51,1319,14,1878,2371,42,664,1214,33,0,12,0,17,21,0,6,11
00ATGL,Hounslow,Hounslow Central,10791,4240,96,1679,16,1363,1312,121,1105,859,39,1,16,0,13,12,1,10,8
00ATGM,Hounslow,Hounslow Heath,11115,3823,110,1958,14,1868,1359,107,1025,851,34,1,18,0,17,12,1,9,8
00ATGN,Hounslow,Hounslow South,10369,5918,74,904,33,573,889,42,1313,623,57,1,9,0,6,9,0,13,6
00ATGP,Hounslow,Hounslow West,10356,3552,98,1802,16,1455,1984,115,682,652,34,1,17,0,14,19,1,7,6
00ATGQ,Hounslow,Isleworth,10745,6533,51,409,35,942,223,22,1814,716,61,0,4,0,9,2,0,17,7
00ATGR,Hounslow,Osterley and Spring Grove,10452,5395,91,1094,19,959,942,82,1246,624,52,1,10,0,9,9,1,12,6
00ATGS,Hounslow,Syon,9717,6123,79,269,31,664,184,38,1611,718,63,1,3,0,7,2,0,17,7
00ATGT,Hounslow,Turnham Green,10184,6315,164,142,127,426,73,54,2149,734,62,2,1,1,4,1,1,21,7
00AUFX,Islington,Barnsbury,10274,5572,128,67,102,867,33,40,2438,1027,54,1,1,1,8,0,0,24,10
00AUFY,Islington,Bunhill,10055,5811,102,125,98,979,42,39,2041,818,58,1,1,1,10,0,0,20,8
00AUFZ,Islington,Caledonian,11566,6171,174,101,86,1168,29,42,2658,1137,53,2,1,1,10,0,0,23,10
00AUGA,Islington,Canonbury,9899,5898,83,51,80,593,13,35,2276,870,60,1,1,1,6,0,0,23,9
00AUGB,Islington,Clerkenwell,9773,5465,114,91,90,588,64,36,2407,918,56,1,1,1,6,1,0,25,9
00AUGC,Islington,Finsbury Park,12448,6121,125,151,93,1467,35,62,2818,1576,49,1,1,1,12,0,0,23,13
00AUGD,Islington,Highbury East,10278,5483,87,79,176,682,76,33,2729,933,53,1,1,2,7,1,0,27,9
00AUGE,Islington,Highbury West,11681,5951,113,119,105,1124,34,47,2886,1302,51,1,1,1,10,0,0,25,11
00AUGF,Islington,Hillrise,11382,6367,93,133,154,872,29,40,2430,1264,56,1,1,1,8,0,0,21,11
00AUGG,Islington,Holloway,11214,6281,137,178,88,853,29,30,2488,1130,56,1,2,1,8,0,0,22,10
00AUGH,Islington,Junction,10816,5876,106,145,160,659,39,67,2698,1066,54,1,1,1,6,0,1,25,10
00AUGJ,Islington,Mildmay,11339,5884,84,61,83,1159,41,46,2701,1280,52,1,1,1,10,0,0,24,11
00AUGK,Islington,St George`s,11178,5942,128,81,199,646,27,84,2990,1081,53,1,1,2,6,0,1,27,10
00AUGL,Islington,St Mary`s,10499,5770,128,115,129,747,17,38,2645,910,55,1,1,1,7,0,0,25,9
00AUGM,Islington,St Peter`s,10933,6374,93,100,114,723,34,34,2506,955,58,1,1,1,7,0,0,23,9
00AUGN,Islington,Tollington,12462,6339,145,154,89,1132,48,46,2980,1529,51,1,1,1,9,0,0,24,12
00AWFY,Kensington and Chelsea,Abingdon,9053,5503,120,102,205,785,13,53,1400,872,61,1,1,2,9,0,1,15,10
00AWFZ,Kensington and Chelsea,Brompton,9313,5891,110,54,339,631,13,36,1084,1155,63,1,1,4,7,0,0,12,12
00AWGA,Kensington and Chelsea,Campden,8173,5298,104,96,236,397,22,51,1239,730,65,1,1,3,5,0,1,15,9
00AWGB,Kensington and Chelsea,Colville,7909,4457,115,66,124,677,16,90,1631,733,56,1,1,2,9,0,1,21,9
00AWGC,Kensington and Chelsea,Courtfield,9578,5876,123,152,209,622,37,63,1682,814,61,1,2,2,6,0,1,18,8
00AWGD,Kensington and Chelsea,Cremorne,9290,5610,73,63,125,987,4,35,1306,1087,60,1,1,1,11,0,0,14,12
00AWGE,Kensington and Chelsea,Earl`s Court,9659,5714,157,154,83,933,23,74,1773,748,59,2,2,1,10,0,1,18,8
00AWGF,Kensington and Chelsea,Golborne,8849,4793,62,69,42,1882,7,66,1110,818,54,1,1,0,21,0,1,13,9
00AWGG,Kensington and Chelsea,Hans Town,9335,6189,86,124,288,565,18,36,1113,916,66,1,1,3,6,0,0,12,10
00AWGH,Kensington and Chelsea,Holland,9372,5269,108,128,466,1095,30,70,1378,828,56,1,1,5,12,0,1,15,9
00AWGJ,Kensington and Chelsea,Norland,8778,5760,70,40,165,466,26,51,1445,755,66,1,0,2,5,0,1,16,9
00AWGK,Kensington and Chelsea,Notting Barns,9000,5338,117,55,85,1268,17,40,1345,735,59,1,1,1,14,0,0,15,8
00AWGL,Kensington and Chelsea,Pembridge,8116,4922,110,89,250,406,21,46,1544,728,61,1,1,3,5,0,1,19,9
00AWGM,Kensington and Chelsea,Queen`s Gate,9668,5904,194,157,284,665,22,63,1483,896,61,2,2,3,7,0,1,15,9
00AWGN,Kensington and Chelsea,Redcliffe,8625,5685,84,105,177,373,35,39,1392,735,66,1,1,2,4,0,0,16,9
00AWGP,Kensington and Chelsea,Royal Hospital,7662,5448,56,31,224,316,5,34,843,705,71,1,0,3,4,0,0,11,9
00AWGQ,Kensington and Chelsea,St Charles,9010,5625,79,61,73,1041,3,34,1408,686,62,1,1,1,12,0,0,16,8
00AWGR,Kensington and Chelsea,Stanley,7529,5184,81,48,175,255,13,23,1064,686,69,1,1,2,3,0,0,14,9
00AXFX,Kingston upon Thames,Alexandra,9045,6109,81,448,49,327,51,35,1370,575,68,1,5,1,4,1,0,15,6
00AXFY,Kingston upon Thames,Berrylands,9278,6065,60,231,79,172,73,60,1828,710,65,1,2,1,2,1,1,20,8
00AXFZ,Kingston upon Thames,Beverley,9488,6026,84,355,44,411,51,32,1691,794,64,1,4,0,4,1,0,18,8
00AXGA,Kingston upon Thames,Canbury,9604,5991,53,191,67,299,32,35,2217,719,62,1,2,1,3,0,0,23,7
00AXGB,Kingston upon Thames,Chessington North and Hook,8721,6451,16,128,8,182,7,15,1268,646,74,0,1,0,2,0,0,15,7
00AXGC,Kingston upon Thames,Chessington South,9488,7050,40,101,9,141,19,21,1416,691,74,0,1,0,1,0,0,15,7
00AXGD,Kingston upon Thames,Coombe Hill,10318,6101,115,433,205,1022,115,52,1646,629,59,1,4,2,10,1,1,16,6
00AXGE,Kingston upon Thames,Coombe Vale,9271,5825,116,544,93,470,73,27,1536,587,63,1,6,1,5,1,0,17,6
00AXGF,Kingston upon Thames,Grove,7864,4731,54,164,65,210,40,43,1958,599,60,1,2,1,3,1,1,25,8
00AXGG,Kingston upon Thames,Norbiton,8844,5244,98,361,37,430,96,39,1856,683,59,1,4,0,5,1,0,21,8
00AXGH,Kingston upon Thames,Old Malden,9012,6267,85,385,33,515,26,42,1094,565,70,1,4,0,6,0,0,12,6
00AXGJ,Kingston upon Thames,St James,8571,5480,100,816,41,460,36,29,969,640,64,1,10,0,5,0,0,11,7
00AXGK,Kingston upon Thames,St Mark`s,9644,5342,68,318,82,321,106,67,2424,916,55,1,3,1,3,1,1,25,9
00AXGL,Kingston upon Thames,Surbiton Hill,10191,6310,75,250,107,270,64,66,2139,910,62,1,2,1,3,1,1,21,9
00AXGM,Kingston upon Thames,Tolworth and Hook Rise,9531,6452,68,479,26,332,62,22,1448,642,68,1,5,0,3,1,0,15,7
00AXGN,Kingston upon Thames,Tudor,8403,5666,60,139,54,215,24,29,1646,570,67,1,2,1,3,0,0,20,7
00AYFZ,Lambeth,Bishop`s,9194,5505,88,157,44,483,41,39,1756,1081,60,1,2,0,5,0,0,19,12
00AYGA,Lambeth,Brixton Hill,12458,7107,96,102,53,448,12,78,3254,1308,57,1,1,0,4,0,1,26,10
00AYGB,Lambeth,Clapham Common,12270,7564,70,109,88,543,16,43,2758,1079,62,1,1,1,4,0,0,22,9
00AYGC,Lambeth,Clapham Town,13332,7949,110,102,67,515,15,58,3149,1367,60,1,1,1,4,0,0,24,10
00AYGD,Lambeth,Coldharbour,14376,8242,118,67,35,885,21,88,3047,1873,57,1,0,0,6,0,1,21,13
00AYGE,Lambeth,Ferndale,12898,7393,158,67,59,595,12,51,3228,1335,57,1,1,0,5,0,0,25,10
00AYGF,Lambeth,Gipsy Hill,13601,7961,82,185,49,426,14,36,2851,1997,59,1,1,0,3,0,0,21,15
00AYGG,Lambeth,Herne Hill,11805,6377,122,119,57,551,18,65,3252,1244,54,1,1,0,5,0,1,28,11
00AYGH,Lambeth,Knight`s Hill,13687,7846,75,245,87,592,33,58,2674,2077,57,1,2,1,4,0,0,20,15
00AYGJ,Lambeth,Larkhall,13906,8296,175,60,48,915,40,65,2905,1402,60,1,0,0,7,0,0,21,10
00AYGK,Lambeth,Oval,11983,7107,131,64,35,538,9,40,2673,1386,59,1,1,0,4,0,0,22,12
00AYGL,Lambeth,Prince`s,11636,7501,82,86,43,632,4,53,2137,1098,64,1,1,0,5,0,0,18,9
00AYGM,Lambeth,St Leonard`s,12215,6626,83,232,80,985,42,72,2866,1229,54,1,2,1,8,0,1,23,10
00AYGN,Lambeth,Stockwell,13416,8542,126,66,47,737,5,46,2379,1468,64,1,0,0,5,0,0,18,11
00AYGP,Lambeth,Streatham Hill,13359,7660,89,131,86,694,12,60,3045,1582,57,1,1,1,5,0,0,23,12
00AYGQ,Lambeth,Streatham South,13449,7780,101,909,38,1335,65,59,1911,1251,58,1,7,0,10,0,0,14,9
00AYGR,Lambeth,Streatham Wells,12746,7235,120,268,110,814,14,90,2877,1218,57,1,2,1,6,0,1,23,10
00AYGS,Lambeth,Thornton,12589,7744,89,175,54,721,16,45,2517,1228,62,1,1,0,6,0,0,20,10
00AYGT,Lambeth,Thurlow Park,10958,6641,120,125,45,372,23,65,2684,883,61,1,1,0,3,0,1,24,8
00AYGU,Lambeth,Tulse Hill,13119,7402,121,75,55,746,8,67,3236,1409,56,1,1,0,6,0,1,25,11
00AYGW,Lambeth,Vassall,13172,8080,138,44,31,817,5,63,2552,1442,61,1,0,0,6,0,0,19,11
00AZGD,Lewisham,Bellingham,13642,9142,99,206,25,559,24,41,2372,1174,67,1,2,0,4,0,0,17,9
00AZGE,Lewisham,Blackheath,13135,7834,107,203,59,416,13,75,3218,1210,60,1,2,0,3,0,1,24,9
00AZGF,Lewisham,Brockley,13697,7674,218,121,65,753,29,92,3438,1307,56,2,1,0,5,0,1,25,10
00AZGG,Lewisham,Catford South,14031,9048,73,282,43,636,24,48,2338,1539,64,1,2,0,5,0,0,17,11
00AZGH,Lewisham,Crofton Park,13904,8385,78,217,23,725,33,52,3078,1313,60,1,2,0,5,0,0,22,9
00AZGJ,Lewisham,Downham,14311,9741,40,157,28,470,6,32,2476,1361,68,0,1,0,3,0,0,17,10
00AZGK,Lewisham,Evelyn,14512,8472,641,175,26,1061,14,65,2475,1583,58,4,1,0,7,0,0,17,11
00AZGL,Lewisham,Forest Hill,14039,8313,109,187,69,637,24,77,3104,1519,59,1,1,0,5,0,1,22,11
00AZGM,Lewisham,Grove Park,14010,9054,80,284,22,505,54,55,2509,1447,65,1,2,0,4,0,0,18,10
00AZGN,Lewisham,Ladywell,12430,7077,86,309,32,576,16,65,3070,1199,57,1,2,0,5,0,1,25,10
00AZGP,Lewisham,Lee Green,12057,7565,77,280,43,361,33,58,2637,1003,63,1,2,0,3,0,0,22,8
00AZGQ,Lewisham,Lewisham Central,13190,7833,110,347,35,606,17,64,2889,1289,59,1,3,0,5,0,0,22,10
00AZGR,Lewisham,New Cross,15093,8462,480,155,31,1064,30,78,3015,1778,56,3,1,0,7,0,1,20,12
00AZGS,Lewisham,Perry Vale,14513,8860,103,237,52,630,23,75,3091,1442,61,1,2,0,4,0,1,21,10
00AZGT,Lewisham,Rushey Green,13215,8103,112,300,22,585,25,53,2431,1584,61,1,2,0,4,0,0,18,12
00AZGU,Lewisham,Sydenham,15353,9452,105,300,51,595,25,83,3113,1629,62,1,2,0,4,0,1,20,11
00AZGW,Lewisham,Telegraph Hill,14426,8231,143,110,59,688,15,84,3512,1584,57,1,1,0,5,0,1,24,11
00AZGX,Lewisham,Whitefoot,13364,9214,60,325,14,624,11,38,2014,1064,69,0,2,0,5,0,0,15,8
00BAFX,Merton,Abbey,9526,5579,77,341,54,613,15,59,2078,710,59,1,4,1,6,0,1,22,7
00BAFY,Merton,Cannon Hill,9286,6466,46,381,20,415,27,32,1296,603,70,0,4,0,4,0,0,14,6
00BAFZ,Merton,Colliers Wood,9293,5185,68,588,15,726,16,40,1900,755,56,1,6,0,8,0,0,20,8
00BAGA,Merton,Cricket Green,10369,6657,49,499,13,663,8,26,1568,886,64,0,5,0,6,0,0,15,9
00BAGB,Merton,Dundonald,9018,5717,74,260,37,322,21,30,1913,644,63,1,3,0,4,0,0,21,7
00BAGC,Merton,Figge`s Marsh,9896,6137,55,708,6,703,34,21,1465,767,62,1,7,0,7,0,0,15,8
00BAGD,Merton,Graveney,9384,5123,38,1246,21,1007,76,29,1159,685,55,0,13,0,11,1,0,12,7
00BAGE,Merton,Hillside,9074,5730,136,175,79,348,7,44,1714,841,63,1,2,1,4,0,0,19,9
00BAGF,Merton,Lavender Fields,9607,5398,120,513,24,612,23,35,1917,965,56,1,5,0,6,0,0,20,10
00BAGG,Merton,Longthornton,9629,6035,31,776,12,747,65,29,1094,840,63,0,8,0,8,1,0,11,9
00BAGH,Merton,Lower Morden,8561,6366,21,191,32,237,3,15,1203,493,74,0,2,0,3,0,0,14,6
00BAGJ,Merton,Merton Park,9144,5685,68,458,50,673,13,32,1526,639,62,1,5,1,7,0,0,17,7
00BAGK,Merton,Pollards Hill,9914,6778,40,359,7,489,63,22,1335,821,68,0,4,0,5,1,0,13,8
00BAGL,Merton,Ravensbury,9270,5928,28,426,19,563,6,38,1404,858,64,0,5,0,6,0,0,15,9
00BAGM,Merton,Raynes Park,9395,6088,96,238,111,368,20,23,1645,806,65,1,3,1,4,0,0,18,9
00BAGN,Merton,St Helier,9155,6198,57,281,14,417,10,20,1497,661,68,1,3,0,5,0,0,16,7
00BAGP,Merton,Trinity,8835,5501,74,261,50,360,26,33,1889,641,62,1,3,1,4,0,0,21,7
00BAGQ,Merton,Village,8914,5764,162,231,227,351,13,18,1297,851,65,2,3,3,4,0,0,15,10
00BAGR,Merton,West Barnes,9559,6405,81,524,23,533,34,28,1333,598,67,1,5,0,6,0,0,14,6
00BAGS,Merton,Wimbledon Park,10079,6262,101,280,68,752,19,39,1867,691,62,1,3,1,7,0,0,19,7
00BBGB,Newham,Beckton,13112,6637,186,378,21,2422,192,55,1793,1428,51,1,3,0,18,1,0,14,11
00BBGC,Newham,Boleyn,12289,5704,81,971,20,3296,352,26,886,953,46,1,8,0,27,3,0,7,8
00BBGD,Newham,Canning Town North,12061,7885,109,108,11,1246,93,22,1442,1145,65,1,1,0,10,1,0,12,9
00BBGE,Newham,Canning Town South,11278,7712,59,101,6,973,23,23,1300,1081,68,1,1,0,9,0,0,12,10
00BBGF,Newham,Custom House,11875,7765,115,182,23,869,68,31,1483,1339,65,1,2,0,7,1,0,12,11
00BBGG,Newham,East Ham Central,12162,4456,69,1816,10,3872,359,10,658,912,37,1,15,0,32,3,0,5,7
00BBGH,Newham,East Ham North,11382,2520,38,1808,3,4993,965,12,403,640,22,0,16,0,44,8,0,4,6
00BBGJ,Newham,East Ham South,12465,7566,46,468,20,1740,133,39,1260,1193,61,0,4,0,14,1,0,10,10
00BBGK,Newham,Forest Gate North,12634,6596,83,465,62,2250,248,53,1643,1234,52,1,4,0,18,2,0,13,10
00BBGL,Newham,Forest Gate South,13929,5480,93,600,49,3953,495,45,1534,1680,39,1,4,0,28,4,0,11,12
00BBGM,Newham,Green Street East,13212,3136,36,2334,25,5521,766,36,421,937,24,0,18,0,42,6,0,3,7
00BBGN,Newham,Green Street West,12860,2729,66,1813,18,6078,611,27,489,1029,21,1,14,0,47,5,0,4,8
00BBGP,Newham,Little Ilford,13329,5576,44,816,24,4442,571,28,863,965,42,0,6,0,33,4,0,6,7
00BBGQ,Newham,Manor Park,12103,4227,47,947,46,4377,689,38,851,881,35,0,8,0,36,6,0,7,7
00BBGR,Newham,Plaistow North,13236,6249,142,486,11,3350,217,53,1100,1628,47,1,4,0,25,2,0,8,12
00BBGS,Newham,Plaistow South,11832,7151,117,358,24,1899,144,36,1175,928,60,1,3,0,16,1,0,10,8
00BBGT,Newham,Royal Docks,6186,3955,17,85,26,457,55,9,945,637,64,0,1,0,7,1,0,15,10
00BBGU,Newham,Stratford and New Town,12378,6785,91,400,28,2079,97,57,1536,1305,55,1,3,0,17,1,0,12,11
00BBGW,Newham,Wall End,12932,4892,68,2282,13,3472,661,24,781,739,38,1,18,0,27,5,0,6,6
00BBGX,Newham,West Ham,12637,7226,85,483,42,2004,158,40,1415,1184,57,1,4,0,16,1,0,11,9
00BCFY,Redbridge,Aldborough,11611,5829,58,1222,1458,870,371,36,871,896,50,0,11,13,7,3,0,8,8
00BCFZ,Redbridge,Barkingside,11303,4087,62,1354,2383,1068,591,59,680,1019,36,1,12,21,9,5,1,6,9
00BCGA,Redbridge,Bridge,11211,7806,40,226,259,401,43,31,1548,857,70,0,2,2,4,0,0,14,8
00BCGB,Redbridge,Chadwell,11030,7559,24,348,191,499,348,35,1172,854,69,0,3,2,5,3,0,11,8
00BCGC,Redbridge,Church End,9997,6154,45,341,551,382,66,26,1728,704,62,0,3,6,4,1,0,17,7
00BCGD,Redbridge,Clayhall,11855,3803,46,1652,2361,1316,898,31,664,1084,32,0,14,20,11,8,0,6,9
00BCGE,Redbridge,Clementswood,11286,3634,31,1469,30,3544,1293,96,566,623,32,0,13,0,31,11,1,5,6
00BCGF,Redbridge,Cranbrook,11858,3782,66,1355,1291,2420,1274,80,687,903,32,1,11,11,20,11,1,6,8
00BCGG,Redbridge,Fairlop,10420,6651,41,413,740,402,116,16,1237,804,64,0,4,7,4,1,0,12,8
00BCGH,Redbridge,Fullwell,11269,6441,61,685,1299,699,254,40,1010,780,57,1,6,12,6,2,0,9,7
00BCGJ,Redbridge,Goodmayes,10994,4934,70,1219,108,1778,1363,26,861,635,45,1,11,1,16,12,0,8,6
00BCGK,Redbridge,Hainault,11367,7980,9,162,400,305,76,21,1411,1003,70,0,1,4,3,1,0,12,9
00BCGL,Redbridge,Loxford,13585,4666,34,1642,126,4241,1029,49,919,879,34,0,12,1,31,8,0,7,6
00BCGM,Redbridge,Mayfield,11226,6008,53,1160,99,1568,1034,43,674,587,54,0,10,1,14,9,0,6,5
00BCGN,Redbridge,Monkhams,9866,6554,28,284,819,249,92,28,1191,621,66,0,3,8,3,1,0,12,6
00BCGP,Redbridge,Newbury,13074,5203,73,1842,831,1937,1156,90,795,1147,40,1,14,6,15,9,1,6,9
00BCGQ,Redbridge,Roding,10770,6860,42,265,361,703,109,40,1508,882,64,0,2,3,7,1,0,14,8
00BCGR,Redbridge,Seven Kings,11910,5403,51,1140,133,1772,1608,104,901,798,45,0,10,1,15,14,1,8,7
00BCGS,Redbridge,Snaresbrook,10854,6315,62,435,807,625,160,40,1660,750,58,1,4,7,6,1,0,15,7
00BCGT,Redbridge,Valentines,11643,4171,68,1066,273,3104,960,104,1034,863,36,1,9,2,27,8,1,9,7
00BCGU,Redbridge,Wanstead,11506,7227,88,381,276,604,181,43,1835,871,63,1,3,2,5,2,0,16,8
00BDFW,Richmond upon Thames,Barnes,9823,6585,96,145,173,287,30,51,1696,760,67,1,1,2,3,0,1,17,8
00BDFX,Richmond upon Thames,East Sheen,9744,6655,60,112,165,191,21,33,1792,715,68,1,1,2,2,0,0,18,7
00BDFY,Richmond upon Thames,Fulwell and Hampton Hill,9448,6212,54,96,41,188,47,22,2012,776,66,1,1,0,2,0,0,21,8
00BDFZ,Richmond upon Thames,Ham Petersham and Richmond Riverside,9678,6195,67,131,105,293,25,49,1857,956,64,1,1,1,3,0,1,19,10
00BDGA,Richmond upon Thames,Hampton,9429,6596,56,111,55,106,63,46,1668,728,70,1,1,1,1,1,0,18,8
00BDGB,Richmond upon Thames,Hampton North,9077,6173,63,117,31,228,69,49,1614,733,68,1,1,0,3,1,1,18,8
00BDGC,Richmond upon Thames,Hampton Wick,9081,5940,54,86,76,159,22,24,1914,806,65,1,1,1,2,0,0,21,9
00BDGD,Richmond upon Thames,Heathfield,9541,6380,37,358,15,402,276,59,1304,710,67,0,4,0,4,3,1,14,7
00BDGE,Richmond upon Thames,Kew,9445,6129,84,131,129,178,24,61,1876,833,65,1,1,1,2,0,1,20,9
00BDGF,Richmond upon Thames,Mortlake and Barnes Common,9925,6622,52,85,111,189,24,37,1938,867,67,1,1,1,2,0,0,20,9
00BDGG,Richmond upon Thames,North Richmond,9767,6292,108,124,115,301,25,33,1933,836,64,1,1,1,3,0,0,20,9
00BDGH,Richmond upon Thames,St Margarets and North Twickenham,9946,6409,63,143,83,196,87,43,2197,725,64,1,1,1,2,1,0,22,7
00BDGJ,Richmond upon Thames,South Richmond,10278,6370,86,77,182,208,18,45,2215,1077,62,1,1,2,2,0,0,22,10
00BDGK,Richmond upon Thames,South Twickenham,9027,6092,40,106,56,116,47,26,1889,655,67,0,1,1,1,1,0,21,7
00BDGL,Richmond upon Thames,Teddington,9615,6134,51,71,80,123,71,35,2263,787,64,1,1,1,1,1,0,24,8
00BDGM,Richmond upon Thames,Twickenham Riverside,9590,5938,61,85,99,150,31,46,2335,845,62,1,1,1,2,0,0,24,9
00BDGN,Richmond upon Thames,West Twickenham,9772,6425,67,262,43,228,90,22,1912,723,66,1,3,0,2,1,0,20,7
00BDGP,Richmond upon Thames,Whitton,9149,6297,43,274,17,344,163,37,1252,722,69,0,3,0,4,2,0,14,8
00BEGC,Southwark,Brunswick Park,11136,6648,139,90,39,860,28,41,2190,1101,60,1,1,0,8,0,0,20,10
00BEGD,Southwark,Camberwell Green,12798,7840,156,123,28,1098,28,65,2025,1435,61,1,1,0,9,0,1,16,11
00BEGE,Southwark,Cathedrals,13115,7348,190,189,64,1223,37,59,2601,1404,56,1,1,0,9,0,0,20,11
00BEGF,Southwark,Chaucer,13058,7165,144,300,39,1686,55,57,2225,1387,55,1,2,0,13,0,0,17,11
00BEGG,Southwark,College,10294,6459,69,216,87,378,12,46,2064,963,63,1,2,1,4,0,0,20,9
00BEGH,Southwark,East Dulwich,10840,6210,103,140,62,475,35,40,2789,986,57,1,1,1,4,0,0,26,9
00BEGJ,Southwark,East Walworth,12000,7333,154,102,23,1134,11,28,1771,1444,61,1,1,0,9,0,0,15,12
00BEGK,Southwark,Faraday,12697,7829,250,27,18,1357,21,50,1772,1373,62,2,0,0,11,0,0,14,11
00BEGL,Southwark,Grange,11985,7537,117,142,36,812,29,33,2122,1157,63,1,1,0,7,0,0,18,10
00BEGM,Southwark,Livesey,12070,7921,112,82,8,1035,20,47,1569,1276,66,1,1,0,9,0,0,13,11
00BEGN,Southwark,Newington,12870,7862,121,68,33,1009,88,32,2186,1471,61,1,1,0,8,1,0,17,11
00BEGP,Southwark,Nunhead,10271,6375,93,97,30,630,13,44,1900,1089,62,1,1,0,6,0,0,18,11
00BEGQ,Southwark,Peckham,11381,7288,231,58,13,1158,17,28,1419,1169,64,2,1,0,10,0,0,12,10
00BEGR,Southwark,Peckham Rye,11248,6799,72,104,56,539,17,56,2552,1053,60,1,1,0,5,0,0,23,9
00BEGS,Southwark,Riverside,10979,7024,86,92,62,488,18,31,2082,1096,64,1,1,1,4,0,0,19,10
00BEGT,Southwark,Rotherhithe,11395,7460,92,146,34,481,20,44,2128,990,65,1,1,0,4,0,0,19,9
00BEGU,Southwark,South Bermondsey,11631,7752,110,84,47,627,19,35,1913,1044,67,1,1,0,5,0,0,16,9
00BEGW,Southwark,South Camberwell,11295,6777,129,155,54,612,35,50,2565,918,60,1,1,0,5,0,0,23,8
00BEGX,Southwark,Surrey Docks,11346,7287,85,183,54,378,33,34,2451,841,64,1,2,0,3,0,0,22,7
00BEGY,Southwark,The Lane,11973,7251,98,76,103,572,23,42,2599,1209,61,1,1,1,5,0,0,22,10
00BEGZ,Southwark,Village,10484,6616,70,190,121,222,19,22,2402,822,63,1,2,1,2,0,0,23,8
00BFGC,Sutton,Beddington North,9941,7261,25,238,7,175,22,26,1469,718,73,0,2,0,2,0,0,15,7
00BFGD,Sutton,Beddington South,10423,7016,71,360,29,302,30,26,1562,1027,67,1,3,0,3,0,0,15,10
00BFGE,Sutton,Belmont,9790,6667,54,272,111,309,24,32,1594,727,68,1,3,1,3,0,0,16,7
00BFGF,Sutton,Carshalton Central,9833,6925,22,156,20,127,15,23,1699,846,70,0,2,0,1,0,0,17,9
00BFGG,Sutton,Carshalton South and Clockhouse,9747,7007,33,240,24,189,15,26,1495,718,72,0,2,0,2,0,0,15,7
00BFGH,Sutton,Cheam,9695,7160,80,336,98,238,11,25,1169,578,74,1,3,1,2,0,0,12,6
00BFGJ,Sutton,Nonsuch,10160,7697,46,217,34,200,7,18,1273,668,76,0,2,0,2,0,0,13,7
00BFGK,Sutton,St Helier,10797,7270,18,166,8,155,0,20,2243,917,67,0,2,0,1,0,0,21,8
00BFGL,Sutton,Stonecot,10327,7786,27,265,16,225,15,12,1374,607,75,0,3,0,2,0,0,13,6
00BFGM,Sutton,Sutton Central,10016,6637,39,140,20,267,6,40,1948,919,66,0,1,0,3,0,0,19,9
00BFGN,Sutton,Sutton North,9675,6997,34,166,20,234,8,26,1467,723,72,0,2,0,2,0,0,15,7
00BFGP,Sutton,Sutton South,8827,5848,57,141,86,345,21,30,1642,657,66,1,2,1,4,0,0,19,7
00BFGQ,Sutton,Sutton West,9980,6787,51,219,67,305,21,32,1870,628,68,1,2,1,3,0,0,19,6
00BFGR,Sutton,The Wrythe,10384,7436,36,118,18,197,16,24,1879,660,72,0,1,0,2,0,0,18,6
00BFGS,Sutton,Wallington North,9974,7067,35,154,22,144,8,37,1831,676,71,0,2,0,1,0,0,18,7
00BFGT,Sutton,Wallington South,9602,6657,35,181,19,197,9,35,1748,721,69,0,2,0,2,0,0,18,8
00BFGU,Sutton,Wandle Valley,10722,7318,23,159,10,231,8,41,2151,781,68,0,1,0,2,0,0,20,7
00BFGW,Sutton,Worcester Park,9874,7127,36,198,21,263,10,25,1557,637,72,0,2,0,3,0,0,16,6
00BGFW,Tower Hamlets,Bethnal Green North,11765,4393,117,79,99,4192,44,40,1760,1041,37,1,1,1,36,0,0,15,9
00BGFX,Tower Hamlets,Bethnal Green South,13675,3593,102,100,132,7156,40,33,1649,870,26,1,1,1,52,0,0,12,6
00BGFY,Tower Hamlets,Blackwall and Cubitt Town,11939,5885,193,102,64,2404,48,39,2336,868,49,2,1,1,20,0,0,20,7
00BGFZ,Tower Hamlets,Bow East,8797,5008,53,57,88,1166,55,39,1662,669,57,1,1,1,13,1,0,19,8
00BGGA,Tower Hamlets,Bow West,10421,5429,96,85,99,1730,80,26,2119,757,52,1,1,1,17,1,0,20,7
00BGGB,Tower Hamlets,Bromley-by-Bow,11581,4148,157,61,64,5099,50,25,1305,672,36,1,1,1,44,0,0,11,6
00BGGC,Tower Hamlets,East India and Lansbury,11496,5259,135,56,36,3709,37,38,1394,832,46,1,0,0,32,0,0,12,7
00BGGD,Tower Hamlets,Limehouse,12484,5514,147,104,66,4106,20,26,1582,919,44,1,1,1,33,0,0,13,7
00BGGE,Tower Hamlets,Mile End and Globe Town,11801,4951,96,115,101,3822,49,36,1586,1045,42,1,1,1,32,0,0,13,9
00BGGF,Tower Hamlets,Mile End East,11139,4223,89,97,103,4357,58,29,1372,811,38,1,1,1,39,1,0,12,7
00BGGG,Tower Hamlets,Millwall,12892,6406,276,135,67,2366,37,29,2783,793,50,2,1,1,18,0,0,22,6
00BGGH,Tower Hamlets,St Dunstan`s and Stepney Green,12679,4333,56,71,210,5695,46,30,1148,1090,34,0,1,2,45,0,0,9,9
00BGGJ,Tower Hamlets,St Katherine`s and Wapping,11245,4995,113,127,109,3006,44,35,1972,844,44,1,1,1,27,0,0,18,8
00BGGK,Tower Hamlets,Shadwell,12078,3489,92,69,94,6243,23,21,1126,921,29,1,1,1,52,0,0,9,8
00BGGL,Tower Hamlets,Spitalfields and Banglatown,8383,1532,40,94,112,5186,9,16,953,441,18,0,1,1,62,0,0,11,5
00BGGM,Tower Hamlets,Weavers,11685,4069,104,57,104,4589,11,38,1637,1076,35,1,0,1,39,0,0,14,9
00BGGN,Tower Hamlets,Whitechapel,12046,2556,72,135,283,6563,31,25,1439,942,21,1,1,2,54,0,0,12,8
00BHFX,Waltham Forest,Cann Hall,11388,6188,53,209,47,1856,108,47,1662,1218,54,0,2,0,16,1,0,15,11
00BHFY,Waltham Forest,Cathall,10608,5377,65,224,35,1999,113,52,1419,1324,51,1,2,0,19,1,0,13,12
00BHFZ,Waltham Forest,Chapel End,11098,7002,50,161,58,960,44,42,1861,920,63,0,1,1,9,0,0,17,8
00BHGA,Waltham Forest,Chingford Green,9497,6978,21,45,94,209,23,30,1331,766,73,0,0,1,2,0,0,14,8
00BHGB,Waltham Forest,Endlebury,10146,7309,22,119,128,499,22,15,1361,671,72,0,1,1,5,0,0,13,7
00BHGC,Waltham Forest,Forest,10427,5025,35,223,46,2468,121,43,1494,972,48,0,2,0,24,1,0,14,9
00BHGD,Waltham Forest,Grove Green,11400,5623,74,319,56,2335,219,66,1782,926,49,1,3,0,20,2,1,16,8
00BHGE,Waltham Forest,Hale End and Highams Park,10075,6791,22,73,66,606,39,26,1721,731,67,0,1,1,6,0,0,17,7
00BHGF,Waltham Forest,Hatch Lane,9879,6937,18,82,117,314,13,20,1561,817,70,0,1,1,3,0,0,16,8
00BHGG,Waltham Forest,High Street,11152,5312,76,261,50,2286,45,47,1874,1201,48,1,2,0,20,0,0,17,11
00BHGH,Waltham Forest,Higham Hill,11161,6502,46,254,37,1464,32,41,1663,1122,58,0,2,0,13,0,0,15,10
00BHGJ,Waltham Forest,Hoe Street,11579,5755,57,251,78,2189,32,57,2124,1036,50,0,2,1,19,0,0,18,9
00BHGK,Waltham Forest,Larkswood,10582,7408,26,129,123,596,32,28,1464,776,70,0,1,1,6,0,0,14,7
00BHGL,Waltham Forest,Lea Bridge,12340,6314,36,247,73,3072,72,43,1447,1036,51,0,2,1,25,1,0,12,8
00BHGM,Waltham Forest,Leyton,12522,6358,52,237,54,2896,79,61,1595,1190,51,0,2,0,23,1,0,13,10
00BHGN,Waltham Forest,Leytonstone,10635,4951,93,172,84,2025,124,64,2041,1081,47,1,2,1,19,1,1,19,10
00BHGP,Waltham Forest,Markhouse,10866,5092,52,250,59,2745,38,41,1624,965,47,0,2,1,25,0,0,15,9
00BHGQ,Waltham Forest,Valley,10680,7295,29,121,75,805,7,23,1570,755,68,0,1,1,8,0,0,15,7
00BHGR,Waltham Forest,William Morris,10975,5384,72,451,58,1879,38,69,1996,1028,49,1,4,1,17,0,1,18,9
00BHGS,Waltham Forest,Wood Street,11331,6414,56,172,103,1699,40,29,1951,867,57,0,2,1,15,0,0,17,8
00BJFZ,Wandsworth,Balham,12840,7984,87,279,111,595,49,33,2719,983,62,1,2,1,5,0,0,21,8
00BJGA,Wandsworth,Bedford,13017,7652,89,374,52,809,43,53,2918,1027,59,1,3,0,6,0,0,22,8
00BJGB,Wandsworth,Earlsfield,12903,8194,66,232,33,775,24,30,2404,1145,64,1,2,0,6,0,0,19,9
00BJGC,Wandsworth,East Putney,13196,8401,124,150,124,556,22,38,2713,1068,64,1,1,1,4,0,0,21,8
00BJGD,Wandsworth,Fairfield,12034,7648,72,158,43,463,24,47,2469,1110,64,1,1,0,4,0,0,21,9
00BJGE,Wandsworth,Furzedown,13539,7573,75,604,65,1090,56,65,2651,1360,56,1,4,0,8,0,0,20,10
00BJGF,Wandsworth,Graveney,13213,6619,116,1183,44,1103,67,57,2757,1267,50,1,9,0,8,1,0,21,10
00BJGG,Wandsworth,Latchmere,12596,7898,78,136,27,759,32,45,2211,1410,63,1,1,0,6,0,0,18,11
00BJGH,Wandsworth,Nightingale,13549,8260,58,292,320,590,37,40,2914,1038,61,0,2,2,4,0,0,22,8
00BJGJ,Wandsworth,Northcote,12851,8441,72,124,70,283,27,38,2861,935,66,1,1,1,2,0,0,22,7
00BJGK,Wandsworth,Queenstown,12505,7867,101,173,57,628,20,37,2467,1155,63,1,1,0,5,0,0,20,9
00BJGL,Wandsworth,Roehampton,13011,7989,99,116,101,661,27,36,2423,1559,61,1,1,1,5,0,0,19,12
00BJGM,Wandsworth,St Mary`s Park,12395,8005,80,120,103,486,12,50,2537,1002,65,1,1,1,4,0,0,20,8
00BJGN,Wandsworth,Shaftesbury,12464,8176,61,100,74,279,13,38,2719,1004,66,0,1,1,2,0,0,22,8
00BJGP,Wandsworth,Southfields,14063,9021,103,160,64,830,32,55,2695,1103,64,1,1,0,6,0,0,19,8
00BJGQ,Wandsworth,Thamesfield,12344,8208,84,111,77,174,7,45,2671,967,66,1,1,1,1,0,0,22,8
00BJGR,Wandsworth,Tooting,13261,6621,96,1202,22,1578,85,62,2578,1017,50,1,9,0,12,1,0,19,8
00BJGS,Wandsworth,Wandsworth Common,13555,9288,78,138,73,429,21,58,2458,1012,69,1,1,1,3,0,0,18,7
00BJGT,Wandsworth,West Hill,14356,8703,206,165,98,986,40,73,2726,1359,61,1,1,1,7,0,1,19,9
00BJGU,Wandsworth,West Putney,12688,8398,98,112,133,455,13,26,2151,1302,66,1,1,1,4,0,0,17,10
00BKGA,Westminster,Abbey Road,9554,4300,185,324,1572,788,22,59,1395,909,45,2,3,16,8,0,1,15,10
00BKGB,Westminster,Bayswater,8145,4430,157,151,239,691,27,48,1704,698,54,2,2,3,8,0,1,21,9
00BKGC,Westminster,Bryanston and Dorset Square,10669,5201,163,340,614,1243,34,75,1998,1001,49,2,3,6,12,0,1,19,9
00BKGD,Westminster,Churchill,8392,5391,54,52,57,1108,3,26,1044,657,64,1,1,1,13,0,0,12,8
00BKGE,Westminster,Church Street,6490,3271,68,100,83,1776,13,29,699,451,50,1,2,1,27,0,0,11,7
00BKGF,Westminster,Harrow Road,8621,4756,74,95,115,1399,20,42,1407,713,55,1,1,1,16,0,0,16,8
00BKGG,Westminster,Hyde Park,10330,4898,186,316,462,1628,37,69,1588,1146,47,2,3,4,16,0,1,15,11
00BKGH,Westminster,Knightsbridge and Belgravia,8949,5544,91,112,388,749,40,42,1229,754,62,1,1,4,8,0,0,14,8
00BKGJ,Westminster,Lancaster Gate,12003,6510,215,213,300,1427,33,94,2203,1008,54,2,2,2,12,0,1,18,8
00BKGK,Westminster,Little Venice,8100,4277,79,118,546,892,17,39,1376,756,53,1,1,7,11,0,0,17,9
00BKGL,Westminster,Maida Vale,9647,5220,87,137,545,948,19,33,1692,966,54,1,1,6,10,0,0,18,10
00BKGM,Westminster,Marylebone High Street,8860,4770,118,198,549,658,42,48,1652,825,54,1,2,6,7,0,1,19,9
00BKGN,Westminster,Queen`s Park,9179,5279,65,105,51,1685,8,37,1152,797,58,1,1,1,18,0,0,13,9
00BKGP,Westminster,Regent`s Park,11049,4977,256,503,1221,1520,24,56,1442,1050,45,2,5,11,14,0,1,13,10
00BKGQ,Westminster,St James`s,8658,5304,143,113,178,517,7,47,1581,768,61,2,1,2,6,0,1,18,9
00BKGR,Westminster,Tachbrook,8341,5516,71,94,132,474,0,28,1405,621,66,1,1,2,6,0,0,17,7
00BKGS,Westminster,Vincent Square,8630,5489,101,130,85,839,17,29,1288,652,64,1,2,1,10,0,0,15,8
00BKGT,Westminster,Warwick,8131,5215,65,108,97,467,15,38,1430,696,64,1,1,1,6,0,0,18,9
00BKGU,Westminster,Westbourne,10075,5553,78,127,136,1986,18,39,1401,737,55,1,1,1,20,0,0,14,7
00BKGW,Westminster,West End,7463,3896,136,161,362,551,4,67,1614,672,52,2,2,5,7,0,1,22,9
H,,London,7172103,4176175,54300,291979,149792,607085,104232,36558,1130616,621366,58.2,0.8,4.1,2.1,8.5,1.5,0.5,15.8,8.7
941,,England and Wales,"52,041,916","37,338,486","144,453","552,421","259,927","1,546,626","329,358","150,720","7,709,267","4,010,658",71.7,0.3,1.1,0.5,3.0,0.6,0.3,14.8,7.7